Principal Components Analysis | Statistical Data Visualization
…
Figure 3: PCA finds a low-dimensional linear subspace that closely
approximates the high-dimensional data.

    In R, PCA can be conveniently implemented using the tidymodels
package. The dataset below contains properties of a variety of
cocktails, from the Boston Bartender’s guide. The first two columns
are qualitative descriptors, while the rest give numerical
ingredient information.

cocktails_df <- read_csv("https://uwmadison.box.com/shared/static/qyqof2512qsek8fpnkqqiw3p1jb77acf.csv")
cocktails_df[, 1:6]

## # A tibble: 937 × 6
##    name                 category              light_rum lemon_…¹ lime_…² sweet…³
##    <chr>                <chr>                     <dbl>    <dbl>   <dbl>   <dbl>
##  1 Gauguin              Cocktail Classics          2        1       1        0  
##  2 Fort Lauderdale      Cocktail Classics          1.5      0       0.25     0.5
##  3 Cuban Cocktail No. 1 Cocktail Classics          2        0       0.5      0  
##  4 Cool Carlos          Cocktail Classics          0        0       0        0  
##  5 John Collins         Whiskies                   0        1       0        0  
##  6 Cherry Rum           Cocktail Classics          1.25     0       0        0  
##  7 Casa Blanca          Cocktail Classics          2        0       1.5      0  
##  8 Caribbean Champagne  Cocktail Classics          0.5      0       0        0  
##  9 Amber Amour          Cordials and Liqueurs      0        0.25    0        0  
## 10 The Joe Lewis        Whiskies                   0        0.5     0        0  
## # … with 927 more rows, and abbreviated variable names ¹​lemon_juice,
## #   ²​lime_juice, ³​sweet_vermouth
…
pca_prep <- prep(pca_rec)

    We can tidy each element of the workflow object. Since PCA was the
second step in the workflow, the PCA components can be obtained by
calling tidy with the argument “2.” The scores of each sample with
respect to these components can be extracted using juice. The
amount of variance explained by each dimension is also given by
tidy, but with the argument type = "variance".

tidy(pca_prep, 2)

## # A tibble: 1,600 × 4
##    terms             value component id       
##    <chr>             <dbl> <chr>     <chr>    
##  1 light_rum        0.163  PC1       pca_tMJA6
##  2 lemon_juice     -0.0140 PC1       pca_tMJA6
##  3 lime_juice       0.224  PC1       pca_tMJA6
##  4 sweet_vermouth  -0.0661 PC1       pca_tMJA6
##  5 orange_juice     0.0308 PC1       pca_tMJA6
##  6 powdered_sugar  -0.476  PC1       pca_tMJA6
##  7 dark_rum         0.124  PC1       pca_tMJA6
##  8 cranberry_juice  0.0954 PC1       pca_tMJA6
##  9 pineapple_juice  0.119  PC1       pca_tMJA6
## 10 bourbon_whiskey  0.0963 PC1       pca_tMJA6
## # … with 1,590 more rows

juice(pca_prep)

## # A tibble: 937 × 7
##    name                 category              PC1     PC2     PC3     PC4    PC5
##    <fct>                <fct>               <dbl>   <dbl>   <dbl>   <dbl>  <dbl>
##  1 Gauguin              Cocktail Classics   1.38  -1.15    1.34   -1.12    1.52 
##  2 Fort Lauderdale      Cocktail Classics   0.684  0.548   0.0308 -0.370   1.41 
##  3 Cuban Cocktail No. 1 Cocktail Classics   0.285 -0.967   0.454  -0.931   2.02 
##  4 Cool Carlos          Cocktail Classics   2.19  -0.935  -1.21    2.47    1.80 
##  5 John Collins         Whiskies            1.28  -1.07    0.403  -1.09   -2.21 
##  6 Cherry Rum           Cocktail Classics  -0.757 -0.460   0.909   0.0154 -0.748
##  7 Casa Blanca          Cocktail Classics   1.53  -0.392   3.29   -3.39    3.87 
##  8 Caribbean Champagne  Cocktail Classics   0.324  0.137  -0.134  -0.147   0.303
##  9 Amber Amour          Cordials and Liqu…  1.31  -0.234  -1.55    0.839  -1.19 
## 10 The Joe Lewis        Whiskies            0.138 -0.0401 -0.0365 -0.100  -0.531
## # … with 927 more rows

tidy(pca_prep, 2, type = "variance")

## # A tibble: 160 × 4
##    terms    value component id       
##    <chr>    <dbl>     <int> <chr>    
##  1 variance  2.00         1 pca_tMJA6
##  2 variance  1.71         2 pca_tMJA6
##  3 variance  1.50         3 pca_tMJA6
##  4 variance  1.48         4 pca_tMJA6
##  5 variance  1.37         5 pca_tMJA6
##  6 variance  1.32         6 pca_tMJA6
##  7 variance  1.30         7 pca_tMJA6
##  8 variance  1.20         8 pca_tMJA6
##  9 variance  1.19         9 pca_tMJA6
## 10 variance  1.18        10 pca_tMJA6
## # … with 150 more rows
…
