Introduction to Topic Modeling | Statistical Data Visualization
…
titles <- c("Twenty Thousand Leagues under the Sea",
        "The War of the Worlds",
        "Pride and Prejudice", 
        "Great Expectations")
books <- gutenberg_works(title %in% titles) %>%
  gutenberg_download(meta_fields = "title")
books

## # A tibble: 53,724 × 3
##    gutenberg_id text                    title                
##           <int> <chr>                   <chr>                
##  1           36 "cover "                The War of the Worlds
##  2           36 ""                      The War of the Worlds
##  3           36 ""                      The War of the Worlds
##  4           36 ""                      The War of the Worlds
##  5           36 ""                      The War of the Worlds
##  6           36 "The War of the Worlds" The War of the Worlds
##  7           36 ""                      The War of the Worlds
##  8           36 "by H. G. Wells"        The War of the Worlds
##  9           36 ""                      The War of the Worlds
## 10           36 ""                      The War of the Worlds
## # … with 53,714 more rows
…
## A LDA_VEM topic model with 4 topics.

topics <- tidy(chapters_lda, matrix = "beta")
memberships <- tidy(chapters_lda, matrix = "gamma")

    This tidy approach is preferable to extracting the parameters
directly from the fitted model (e.g., using chapters_lda@gamma)
because it ensures the output is a tidy data.frame, rather than a
matrix. Tidy data.frames are easier to visualize using ggplot2.

# highest weight words per topic
topics %>%
  arrange(topic, -beta)

## # A tibble: 74,976 × 3
##    topic term          beta
##    <int> <chr>        <dbl>
##  1     1 captain    0.0153 
##  2     1 _nautilus_ 0.0126 
##  3     1 sea        0.00907
##  4     1 nemo       0.00863
##  5     1 ned        0.00789
##  6     1 conseil    0.00676
##  7     1 water      0.00599
##  8     1 land       0.00598
##  9     1 sir        0.00485
## 10     1 day        0.00365
## # … with 74,966 more rows

# topic memberships per document
memberships %>%
  arrange(document, topic)

## # A tibble: 780 × 3
##    document               topic     gamma
##    <chr>                  <int>     <dbl>
##  1 Great Expectations_0       1 0.00282  
##  2 Great Expectations_0       2 0.461    
##  3 Great Expectations_0       3 0.00282  
##  4 Great Expectations_0       4 0.533    
##  5 Great Expectations_100     1 0.000424 
##  6 Great Expectations_100     2 0.000424 
##  7 Great Expectations_100     3 0.999    
##  8 Great Expectations_100     4 0.000424 
##  9 Great Expectations_101     1 0.0000140
## 10 Great Expectations_101     2 0.0000140
## # … with 770 more rows
…
