Geospatial Visualization (I) | Statistical Data Visualization
…
roads <- read_sf("https://raw.githubusercontent.com/krisrs1128/stat679_code/main/examples/week7/week7-3/brasilia_small.geojson")
roads

## Simple feature collection with 13724 features and 4 fields
## Geometry type: MULTILINESTRING
## Dimension:     XY
## Bounding box:  xmin: -47.93837 ymin: -15.84528 xmax: -47.85206 ymax: -15.7774
## Geodetic CRS:  WGS 84
## # A tibble: 13,724 × 5
##    id           X.id         addr.street addr.postcode                  geometry
##    <chr>        <chr>        <chr>       <chr>             <MULTILINESTRING [°]>
##  1 way/5081572  way/5081572  <NA>        <NA>          ((-47.93837 -15.77759, -…
##  2 way/5081822  way/5081822  <NA>        <NA>          ((-47.87463 -15.79535, -…
##  3 way/8159668  way/8159668  <NA>        <NA>          ((-47.88983 -15.79309, -…
##  4 way/8504851  way/8504851  <NA>        <NA>          ((-47.86715 -15.7998, -4…
##  5 way/10064569 way/10064569 <NA>        <NA>          ((-47.85206 -15.80352, -…
##  6 way/10064602 way/10064602 <NA>        <NA>          ((-47.9272 -15.84528, -4…
##  7 way/10064697 way/10064697 <NA>        <NA>          ((-47.93122 -15.84404, -…
##  8 way/10064822 way/10064822 <NA>        <NA>          ((-47.93144 -15.84261, -…
##  9 way/10064844 way/10064844 <NA>        <NA>          ((-47.93703 -15.84485, -…
## 10 way/10064854 way/10064854 <NA>        <NA>          ((-47.93274 -15.84491, -…
## # … with 13,714 more rows

clinics <- read_sf("https://raw.githubusercontent.com/krisrs1128/stat679_code/main/examples/week7/week7-3/clinics.geojson")
clinics

## Simple feature collection with 30 features and 33 fields
## Geometry type: GEOMETRY
## Dimension:     XY
## Bounding box:  xmin: -89.52806 ymin: 43.00435 xmax: -89.3083 ymax: 43.12346
## Geodetic CRS:  WGS 84
## # A tibble: 30 × 34
##    id      X.id  addr.…¹ addr.…² addr.…³ addr.…⁴ addr.…⁵ addr.…⁶ addr.…⁷ alt_n…⁸
##    <chr>   <chr> <chr>   <chr>   <chr>   <chr>   <chr>   <chr>   <chr>   <chr>  
##  1 way/38… way/… Madison 8202    53717   WI      Excels… <NA>    <NA>    <NA>   
##  2 way/10… way/… Madison 675     53703   <NA>    West W… <NA>    <NA>    <NA>   
##  3 way/10… way/… <NA>    <NA>    <NA>    <NA>    <NA>    <NA>    <NA>    <NA>   
##  4 way/10… way/… Madison 3706    53704   WI      Orin R… <NA>    <NA>    <NA>   
##  5 way/10… way/… Madison 1500    53705   <NA>    Highla… <NA>    <NA>    <NA>   
##  6 way/10… way/… <NA>    <NA>    <NA>    <NA>    <NA>    <NA>    <NA>    <NA>   
##  7 way/13… way/… <NA>    <NA>    <NA>    <NA>    <NA>    <NA>    <NA>    <NA>   
##  8 way/15… way/… <NA>    <NA>    <NA>    <NA>    <NA>    <NA>    <NA>    <NA>   
##  9 way/20… way/… <NA>    <NA>    <NA>    <NA>    <NA>    <NA>    <NA>    <NA>   
## 10 way/22… way/… Madison 3102    <NA>    WI      Merite… <NA>    <NA>    <NA>   
## # … with 20 more rows, 24 more variables: amenity <chr>, brand <chr>,
## #   brand.wikidata <chr>, brand.wikipedia <chr>, building <chr>,
## #   building.levels <chr>, emergency <chr>, gnis.feature_id <chr>,
## #   healthcare <chr>, healthcare.counselling <chr>,
## #   healthcare.speciality <chr>, internet_access <chr>, layer <chr>,
## #   name <chr>, name.en <chr>, opening_hours <chr>, operator <chr>,
## #   phone <chr>, roof.levels <chr>, start_date <chr>, …

glaciers <- read_sf("https://raw.githubusercontent.com/krisrs1128/stat679_code/main/examples/week7/week7-3/glaciers.geojson")
glaciers

## Simple feature collection with 108 features and 21 fields
## Geometry type: MULTIPOLYGON
## Dimension:     XY
## Bounding box:  xmin: 80.80884 ymin: 29.90459 xmax: 81.01887 ymax: 30.17747
## Geodetic CRS:  WGS 84
## # A tibble: 108 × 22
##       ID GLIMS_ID     Basin Sub_B…¹ Images Longi…² Latit…³ Class Elv_min Elv_m…⁴
##    <dbl> <chr>        <chr> <chr>   <chr>    <dbl>   <dbl> <chr>   <int>   <int>
##  1     3 G080926E301… Maha… Mahaka… l5144…    80.9    30.2 53012    4426    4895
##  2     5 G080955E301… Maha… Mahaka… l5144…    81.0    30.2 64022    4782    5185
##  3     8 G080932E301… Maha… Mahaka… l5144…    80.9    30.2 67023    4968    5060
##  4    23 G081016E300… Maha… Mahaka… l5144…    81.0    30.1 63022    4965    5012
##  5    24 G080856E300… Maha… Mahaka… l5144…    80.9    30.1 63022    4611    4814
##  6    26 G080939E300… Maha… Mahaka… l5144…    80.9    30.0 67023    5355    5522
##  7    27 G080861E300… Maha… Mahaka… l5144…    80.9    30.0 67023    4907    5010
##  8    28 G080951E300… Maha… Mahaka… l5144…    81.0    30.0 53012    3695    4777
##  9    29 G080879E300… Maha… Mahaka… l5144…    80.9    30.0 65052    4979    5127
## 10    30 G080876E300… Maha… Mahaka… l5144…    80.9    30.0 67023    5183    5296
## # … with 98 more rows, 12 more variables: Elv_max <int>, Slope_min <int>,
## #   Slope_mean <int>, Slope_max <int>, Aspect <int>, Area_SqKm <dbl>,
## #   Thickness <dbl>, Reserve <dbl>, Year <int>, Shape_area <dbl>,
## #   Shape_len <dbl>, geometry <MULTIPOLYGON [°]>, and abbreviated variable
## #   names ¹​Sub_Basin, ²​Longitude, ³​Latitude, ⁴​Elv_mean
…
